;(function ($) {
	'use strict';

	$.widget('{{projectname}}.{{blockname}}', {
		_create: function () {
			
			this._initEvents();
		},
		_initEvents: function () {
			this._on({

			});
		}
	});
})(jQuery);